{
    "name": "minor-qol",
    "title": "Minor Quality of Life Improvements",
    "description": "Item delete confirmation|Hide/Show chat card info|speed attack rolls",
    "version": "0.0.99",
    "author": "tposney",
    "minimumCoreVersion": "0.5.5",
    "compatibleCoreVersion": "0.5.5",
    "languages": [
        {
            "lang": "en",
            "name": "English",
            "path": "lang/en.json"
        },
        {
            "lang": "ja",
            "name": " 日本語",
            "path": "lang/ja.json"
        },
        {
            "lang": "kr",
            "name": "Korean",
            "path": "lang/kr.json"
        },
        {
            "lang": "cn",
            "name": "中文",
            "path": "lang/cn.json"
        }
    ],
    "systems": ["dnd5e"],
    "esmodules": ["main.js", "module/patching.js"],
    "scripts": ["vars.js"
    ],
    "styles": ["css/styles.css"],
    "packs": [],
    "socket": true,
    "url": "https://gitlab.com/tposney/minor-qol/tree/master",
    "manifest": "https://gitlab.com/tposney/minor-qol/raw/master/module.json",
    "download": "https://gitlab.com/tposney/minor-qol/raw/master/minor-qol.zip"
  }

